{
  "identity": "W3C-998619",
  "name": "Jedi Mind Trick",
  "barcode": "KMT424242",
  "batchCode": "BC 123/4",
  "purity": 99.7,
  "purityUom": "%",
  "expiry": "2024-10-31T12:10:00",
  "expiryAms": "Y"
}
