[
  {
    "id": 1,
    "name": "Worksheet-1",
    "createdOn": "2020-07-21",
    "lastModifiedOn": "2020-07-21",
    "user": "Dave G"
  },
  {
    "id": 2,
    "name": "Worksheet-2",
    "createdOn": "2020-07-22",
    "lastModifiedOn": "2020-07-21",
    "user": "P Bhasin"
  }
]
